<?xml version="1.0" encoding="UTF-8" standalone="no"?>
<svg
   width="88.589134mm"
   height="198.33342mm"
   viewBox="0 0 313.89851 702.75621"
   id="svg2"
   version="1.1"
   inkscape:version="1.2.2 (b0a8486541, 2022-12-01)"
   sodipodi:docname="player_italy_unhappy.svg"
   inkscape:export-filename="F:\daten\Dokumente\Schule\Fußballer\soccer_denmark.png"
   inkscape:export-xdpi="114.73759"
   inkscape:export-ydpi="114.73759"
   xmlns:inkscape="http://www.inkscape.org/namespaces/inkscape"
   xmlns:sodipodi="http://sodipodi.sourceforge.net/DTD/sodipodi-0.dtd"
   xmlns:xlink="http://www.w3.org/1999/xlink"
   xmlns="http://www.w3.org/2000/svg"
   xmlns:svg="http://www.w3.org/2000/svg"
   xmlns:rdf="http://www.w3.org/1999/02/22-rdf-syntax-ns#"
   xmlns:cc="http://creativecommons.org/ns#"
   xmlns:dc="http://purl.org/dc/elements/1.1/">
  <defs
     id="defs4">
    <inkscape:path-effect
       effect="spiro"
       id="path-effect4138"
       is_visible="true" />
    <inkscape:path-effect
       effect="spiro"
       id="path-effect4192-6-2"
       is_visible="true" />
    <inkscape:path-effect
       effect="spiro"
       id="path-effect4192-3-1"
       is_visible="true" />
    <inkscape:path-effect
       effect="spiro"
       id="path-effect4192-2"
       is_visible="true" />
    <inkscape:path-effect
       effect="spiro"
       id="path-effect4192-6"
       is_visible="true" />
    <inkscape:path-effect
       effect="spiro"
       id="path-effect4192-3"
       is_visible="true" />
    <inkscape:path-effect
       effect="spiro"
       id="path-effect4192"
       is_visible="true" />
    <inkscape:path-effect
       is_visible="true"
       id="path-effect4188"
       effect="spiro" />
    <inkscape:path-effect
       effect="spiro"
       id="path-effect4184"
       is_visible="true" />
    <inkscape:path-effect
       effect="spiro"
       id="path-effect4176"
       is_visible="true" />
    <inkscape:path-effect
       effect="spiro"
       id="path-effect4172"
       is_visible="true" />
    <inkscape:path-effect
       effect="spiro"
       id="path-effect4162"
       is_visible="true" />
    <inkscape:path-effect
       effect="spiro"
       id="path-effect4158"
       is_visible="true" />
    <inkscape:path-effect
       effect="spiro"
       id="path-effect4157-7"
       is_visible="true" />
    <inkscape:path-effect
       effect="spiro"
       id="path-effect4157"
       is_visible="true" />
    <inkscape:path-effect
       effect="spiro"
       id="path-effect4180"
       is_visible="true" />
    <inkscape:path-effect
       effect="spiro"
       id="path-effect4273"
       is_visible="true" />
    <inkscape:path-effect
       effect="spiro"
       id="path-effect4269"
       is_visible="true" />
    <inkscape:path-effect
       effect="spiro"
       id="path-effect4302"
       is_visible="true" />
    <inkscape:path-effect
       effect="spiro"
       id="path-effect4306"
       is_visible="true" />
    <inkscape:path-effect
       effect="spiro"
       id="path-effect4310"
       is_visible="true" />
    <inkscape:path-effect
       effect="spiro"
       id="path-effect4302-2"
       is_visible="true" />
    <inkscape:path-effect
       effect="spiro"
       id="path-effect4306-8"
       is_visible="true" />
    <inkscape:path-effect
       effect="spiro"
       id="path-effect4310-6"
       is_visible="true" />
    <clipPath
       id="band">
      <circle
         cy="0"
         cx="0"
         r="735"
         id="circle53" />
    </clipPath>
    <clipPath
       id="gcut">
      <path
         inkscape:connector-curvature="0"
         d="m -31.5,0 0,-70 63,0 0,70 z M 0,-47 l 0,12 31.5,0 0,-12 z"
         id="path11" />
    </clipPath>
  </defs>
  <sodipodi:namedview
     id="base"
     pagecolor="#ffffff"
     bordercolor="#666666"
     borderopacity="1.0"
     inkscape:pageopacity="0.0"
     inkscape:pageshadow="2"
     inkscape:zoom="1.047077"
     inkscape:cx="-183.36761"
     inkscape:cy="295.10725"
     inkscape:document-units="px"
     inkscape:current-layer="layer1"
     showgrid="false"
     fit-margin-top="0"
     fit-margin-left="0"
     fit-margin-right="0"
     fit-margin-bottom="0"
     inkscape:window-width="1866"
     inkscape:window-height="1011"
     inkscape:window-x="54"
     inkscape:window-y="0"
     inkscape:window-maximized="1"
     inkscape:document-rotation="0"
     inkscape:showpageshadow="0"
     inkscape:pagecheckerboard="0"
     inkscape:deskcolor="#d1d1d1" />
  <metadata
     id="metadata7">
    <rdf:RDF>
      <cc:Work
         rdf:about="">
        <dc:format>image/svg+xml</dc:format>
        <dc:type
           rdf:resource="http://purl.org/dc/dcmitype/StillImage" />
      </cc:Work>
    </rdf:RDF>
  </metadata>
  <g
     inkscape:label="Ebene 1"
     inkscape:groupmode="layer"
     id="layer1"
     transform="translate(-168.98851,-543.24521)">
    <ellipse
       style="fill:#ffe6d5;fill-opacity:1;stroke:#000000;stroke-width:4.22298098;stroke-miterlimit:4;stroke-dasharray:none;stroke-opacity:1"
       id="path4387-0"
       cx="396.57144"
       cy="654.07648"
       rx="12.333632"
       ry="14.479342" />
    <ellipse
       style="fill:#ffe6d5;fill-opacity:1;stroke:#000000;stroke-width:4.22298098;stroke-miterlimit:4;stroke-dasharray:none;stroke-opacity:1"
       id="path4387-0-4"
       cx="247.14287"
       cy="654.64789"
       rx="12.333632"
       ry="14.479342" />
    <ellipse
       style="fill:#e9c6af;fill-opacity:1;stroke:#000000;stroke-width:4.00000048;stroke-miterlimit:4;stroke-dasharray:none;stroke-opacity:1"
       id="path4250"
       cx="220.98157"
       cy="987.77747"
       rx="33.850857"
       ry="36.859821" />
    <ellipse
       style="fill:#e9c6af;fill-opacity:1;stroke:#000000;stroke-width:3;stroke-miterlimit:4;stroke-dasharray:none;stroke-opacity:1"
       id="path4250-7"
       cx="430.85687"
       cy="994.54761"
       rx="33.850857"
       ry="36.859821" />
    <path
       style="fill:#e9c6af;fill-opacity:1;fill-rule:evenodd;stroke:#000000;stroke-width:4.00000048;stroke-linecap:butt;stroke-linejoin:miter;stroke-miterlimit:4;stroke-dasharray:none;stroke-opacity:1"
       d="m 245.02983,978.8146 1.01016,-126.77414 -54.04317,4.04061 3.39812,109.66719"
       id="path6385"
       inkscape:connector-curvature="0"
       sodipodi:nodetypes="cccc" />
    <path
       style="fill:#e9c6af;fill-opacity:1;fill-rule:evenodd;stroke:#000000;stroke-width:4.00000048;stroke-linecap:butt;stroke-linejoin:miter;stroke-miterlimit:4;stroke-dasharray:none;stroke-opacity:1"
       d="m 402.40576,980.57983 -1.01016,-126.77415 54.04317,4.04061 -3.39812,109.6672"
       id="path6385-0"
       inkscape:connector-curvature="0"
       sodipodi:nodetypes="cccc" />
    <path
       style="fill:#e9c6af;fill-opacity:1;fill-rule:evenodd;stroke:#000000;stroke-width:4.00000048;stroke-linecap:butt;stroke-linejoin:miter;stroke-miterlimit:4;stroke-dasharray:none;stroke-opacity:1"
       d="m 312.32683,1214.8655 4.58159,-120.3455 -73.32888,-2.388 9.1124,108.9529"
       id="path6385-4"
       inkscape:connector-curvature="0"
       sodipodi:nodetypes="cccc" />
    <path
       style="fill:#e9c6af;fill-opacity:1;fill-rule:evenodd;stroke:#000000;stroke-width:4.00000048;stroke-linecap:butt;stroke-linejoin:miter;stroke-miterlimit:4;stroke-dasharray:none;stroke-opacity:1"
       d="m 337.73084,1214.2016 -4.58159,-120.3456 73.32889,-2.388 -9.1124,108.953"
       id="path6385-4-8"
       inkscape:connector-curvature="0"
       sodipodi:nodetypes="cccc" />
    <path
       style="fill:#f9f9f9;fill-opacity:1;fill-rule:evenodd;stroke:#000000;stroke-width:4;stroke-linecap:butt;stroke-linejoin:miter;stroke-miterlimit:4;stroke-dasharray:none;stroke-opacity:1"
       d="m 240.53983,949.99181 c 61.16302,0.77236 109.82713,-5.11572 166.24531,-1.50448 17.42484,67.21087 7.73954,86.48677 6.01793,170.64547 -46.66599,15.4996 -72.16179,1.6334 -88.01223,-3.7612 -22.05292,16.5823 -86.91318,10.2055 -87.25997,6.7701 -11.12659,-148.263 2.64065,-165.7477 3.00896,-172.14989 z"
       id="path4154"
       inkscape:connector-curvature="0"
       sodipodi:nodetypes="cccccc" />
    <path
       style="fill:#0055d4;fill-opacity:1;fill-rule:evenodd;stroke:#000000;stroke-width:4.00000048;stroke-linecap:butt;stroke-linejoin:miter;stroke-miterlimit:4;stroke-dasharray:none;stroke-opacity:1"
       d="m 235.3226,737.73993 c -11.8202,17.08266 -41.85183,65.07129 -50.87474,123.30335 -0.45095,2.91034 54.70414,-0.63506 54.70414,-0.63506 l -6.42857,114.28571 182.85714,1.42857 -4.28571,-116.42857 49.28571,0 c -19.12397,-76.56397 -28.71743,-87.28068 -48.03803,-123.6241 -5.64082,-10.72502 -2.67752,-9.2868 -15.27062,-8.97066 l -147.4781,3.70231 c -10.66086,-0.26216 -9.71762,0.0855 -14.47122,6.93845 z"
       id="path6383"
       inkscape:connector-curvature="0"
       sodipodi:nodetypes="csccccccccc" />
    <path
       style="fill:#e9c6af;fill-opacity:1;fill-rule:evenodd;stroke:#000000;stroke-width:4;stroke-linecap:butt;stroke-linejoin:miter;stroke-miterlimit:4;stroke-dasharray:none;stroke-opacity:1"
       d="m 286.202,740.77178 74.28571,-1.42857 c 0,0 -2.25735,37.33743 -34.28571,37.22009 -33.56347,-0.12296 -40,-35.79152 -40,-35.79152 z"
       id="path5606"
       inkscape:connector-curvature="0"
       sodipodi:nodetypes="ccsc" />
    <path
       style="fill:#e9c6af;fill-rule:evenodd;stroke:#000000;stroke-width:4;stroke-linecap:butt;stroke-linejoin:miter;stroke-miterlimit:4;stroke-dasharray:none;stroke-opacity:1"
       d="m 268.16715,591.41908 c -26.24052,21.32448 -25.42326,80.03554 -18.84907,99.67145 8.08465,24.14739 26.23834,47.60922 49.33877,58.32502 16.51636,7.66159 38.34934,8.16919 54.62062,0 20.212,-10.14767 35.7531,-32.30711 40.53032,-54.41318 7.13048,-32.99551 1.661,-82.20585 -13.40056,-101.44241 -23.3113,-29.77308 -83.19997,-25.74047 -112.24008,-2.14088 z"
       id="path4140"
       inkscape:connector-curvature="0"
       sodipodi:nodetypes="asaassa" />
    <path
       style="fill:#ffffff;fill-rule:evenodd;stroke:#000000;stroke-width:4;stroke-linecap:butt;stroke-linejoin:miter;stroke-miterlimit:4;stroke-dasharray:none;stroke-opacity:1"
       d="m 296.0943,645.67807 c -6.31189,-1.74857 -12.82162,-1.16196 -18.199,3.16973 -17.8941,14.41441 13.40326,34.73506 23.60951,23.77301 7.91779,-8.50413 10.12548,-26.94274 -5.41051,-26.94274 z"
       id="path4864"
       inkscape:connector-curvature="0" />
    <ellipse
       style="fill:#000000;fill-opacity:1;stroke:#000000;stroke-width:1.34574461;stroke-miterlimit:4;stroke-dasharray:none;stroke-opacity:1"
       id="path4866"
       cx="288.47037"
       cy="658.88531"
       rx="3.1971221"
       ry="3.6980233" />
    <path
       inkscape:connector-curvature="0"
       id="path4874"
       d="m 345.54466,647.03204 c 6.31189,-1.74857 12.82162,-1.16196 18.199,3.16974 17.8941,14.4144 -13.40326,34.73505 -23.60951,23.773 -7.91779,-8.50413 -10.12548,-26.94274 5.41051,-26.94274 z"
       style="fill:#ffffff;fill-rule:evenodd;stroke:#000000;stroke-width:4;stroke-linecap:butt;stroke-linejoin:miter;stroke-miterlimit:4;stroke-dasharray:none;stroke-opacity:1" />
    <ellipse
       ry="3.6980233"
       rx="3.1971221"
       cy="660.23932"
       cx="349.98553"
       id="ellipse4876"
       style="fill:#000000;fill-opacity:1;stroke:#000000;stroke-width:1.34574461;stroke-miterlimit:4;stroke-dasharray:none;stroke-opacity:1" />
    <path
       style="fill:none;fill-rule:evenodd;stroke:#000000;stroke-width:4;stroke-linecap:butt;stroke-linejoin:miter;stroke-miterlimit:4;stroke-dasharray:none;stroke-opacity:1"
       d="m 318.68492,697.19665 c 8.97097,-1.79458 12.89496,-4.29836 11.34971,-7.79519 -6.96706,-15.76611 -7.30029,-16.10334 -6.96706,-15.76611"
       id="path4878"
       inkscape:connector-curvature="0"
       sodipodi:nodetypes="csc"
       inkscape:transform-center-x="5.2140812"
       inkscape:transform-center-y="4.2192757" />
    <g
       id="g4889"
       transform="matrix(1,0,0,-1,169.16268,1261.6215)"
       style="stroke-width:4;stroke-miterlimit:4;stroke-dasharray:none">
      <path
         inkscape:connector-curvature="0"
         id="path4882"
         d="m 111.17021,536.1388 c 11.86211,-6.17337 14.72731,-9.3001 15.15957,-9.84043"
         style="fill:none;fill-rule:evenodd;stroke:#000000;stroke-width:4;stroke-linecap:butt;stroke-linejoin:miter;stroke-miterlimit:4;stroke-dasharray:none;stroke-opacity:1"
         sodipodi:nodetypes="cc" />
      <path
         inkscape:connector-curvature="0"
         id="path4884"
         d="m 118.08511,531.08561 c 23.47092,35.01681 61.83175,30.63501 77.65957,4.25532"
         style="fill:none;fill-rule:evenodd;stroke:#000000;stroke-width:4;stroke-linecap:butt;stroke-linejoin:miter;stroke-miterlimit:4;stroke-dasharray:none;stroke-opacity:1" />
      <path
         inkscape:connector-curvature="0"
         id="path4886"
         d="m 190.15957,528.95795 c 4.81235,7.04684 5.9297,8.05735 10.37235,12.76596"
         style="fill:none;fill-rule:evenodd;stroke:#000000;stroke-width:4;stroke-linecap:butt;stroke-linejoin:miter;stroke-miterlimit:4;stroke-dasharray:none;stroke-opacity:1"
         sodipodi:nodetypes="cc" />
    </g>
    <path
       style="fill:none;fill-rule:evenodd;stroke:#000000;stroke-width:3;stroke-linecap:butt;stroke-linejoin:miter;stroke-miterlimit:4;stroke-dasharray:none;stroke-opacity:1"
       d="m 325.49745,1116.6817 -1.50449,-71.0765"
       id="path4156"
       inkscape:path-effect="#path-effect4158"
       inkscape:original-d="m 325.49745,1116.6817 -1.50449,-71.0765"
       inkscape:connector-curvature="0"
       sodipodi:nodetypes="cc" />
    <path
       style="fill:none;fill-rule:evenodd;stroke:#000000;stroke-width:3;stroke-linecap:butt;stroke-linejoin:miter;stroke-miterlimit:4;stroke-dasharray:none;stroke-opacity:1"
       d="m 307.70961,1038.2412 c 4.20202,4.9799 10.79371,7.8459 17.30155,7.5224 6.12655,-0.3045 12.05833,-3.4117 15.79707,-8.2747 l -0.75224,-0.7522"
       id="path4160"
       inkscape:path-effect="#path-effect4162"
       inkscape:original-d="m 307.70961,1038.2412 c 0,0 11.01696,7.75 17.30155,7.5224 5.94045,-0.2151 15.79707,-8.2747 15.79707,-8.2747 l -0.75224,-0.7522"
       inkscape:connector-curvature="0"
       sodipodi:nodetypes="cscc" />
    <path
       style="fill:#241c1c;fill-opacity:1;fill-rule:evenodd;stroke:#000000;stroke-width:4;stroke-linecap:butt;stroke-linejoin:miter;stroke-miterlimit:4;stroke-dasharray:none;stroke-opacity:1"
       d="m 315.65033,1189.1014 1.60465,53.7903 h -30.48819 c -1.61985,-1.5618 -3.51398,-2.8384 -5.56957,-3.7537 -3.26437,-1.4535 -6.93558,-1.9798 -10.47684,-1.502 l -8.02321,5.6511 h -83.41815 c -4.6189,-4.2219 -7.5947,-10.1972 -8.18117,-16.4273 -0.58647,-6.2302 1.22199,-12.6558 4.97189,-17.6655 2.82009,-3.7675 6.65396,-6.6997 10.82494,-8.8792 4.17098,-2.1794 8.68367,-3.6356 13.24467,-4.7951 15.67405,-3.9846 32.21134,-4.5361 48.11604,-1.6046 z"
       id="path4300"
       inkscape:path-effect="#path-effect4302"
       inkscape:original-d="m 315.65033,1189.1014 1.60465,53.7903 -30.48819,0 c 0,0 -0.60452,0.4524 -5.56957,-3.7537 -3.26499,-2.7658 -10.47684,-1.502 -10.47684,-1.502 l -8.02321,5.6511 -83.41815,0 c 0,0 -8.48177,-23.969 -3.20928,-34.0928 4.26231,-8.1842 15.18874,-11.1687 24.06961,-13.6743 15.44465,-4.3575 48.11604,-1.6046 48.11604,-1.6046 z"
       inkscape:connector-curvature="0"
       sodipodi:nodetypes="cccscccaacc" />
    <path
       style="fill:#241c1c;fill-opacity:1;fill-rule:evenodd;stroke:#000000;stroke-width:4;stroke-linecap:butt;stroke-linejoin:miter;stroke-miterlimit:4;stroke-dasharray:none;stroke-opacity:1"
       d="m 336.22513,1189.8157 -1.60465,53.7903 h 30.48819 c 1.61985,-1.5618 3.51398,-2.8384 5.56957,-3.7537 3.26437,-1.4535 6.93558,-1.9798 10.47684,-1.502 l 8.02321,5.6511 h 83.41815 c 4.61894,-4.2219 7.59476,-10.1972 8.18122,-16.4274 0.58647,-6.2302 -1.22201,-12.6558 -4.97194,-17.6655 -2.8201,-3.7675 -6.65397,-6.6997 -10.82495,-8.8791 -4.17098,-2.1794 -8.68367,-3.6356 -13.24466,-4.7951 -15.67406,-3.9846 -32.21133,-4.5361 -48.11604,-1.6047 z"
       id="path4300-8"
       inkscape:path-effect="#path-effect4302-2"
       inkscape:original-d="m 336.22513,1189.8157 -1.60465,53.7903 30.48819,0 c 0,0 0.60452,0.4523 5.56957,-3.7537 3.26499,-2.7658 10.47684,-1.502 10.47684,-1.502 l 8.02321,5.6511 83.41815,0 c 0,0 8.48177,-23.969 3.20928,-34.0929 -4.26231,-8.1841 -15.18874,-11.1686 -24.06961,-13.6742 -15.44465,-4.3575 -48.11604,-1.6047 -48.11604,-1.6047 z"
       inkscape:connector-curvature="0"
       sodipodi:nodetypes="cccscccaacc" />
    <path
       style="fill:none;fill-rule:evenodd;stroke:#000000;stroke-width:4.00000048;stroke-linecap:butt;stroke-linejoin:miter;stroke-miterlimit:4;stroke-dasharray:none;stroke-opacity:1"
       d="M 410.75916,860.05109 396.48395,809.18451"
       id="path6498-6"
       inkscape:connector-curvature="0"
       sodipodi:nodetypes="cc" />
    <path
       style="fill:#ffffff;fill-rule:evenodd;stroke:none;stroke-width:1px;stroke-linecap:butt;stroke-linejoin:miter;stroke-opacity:1"
       d="m 399.68843,1196.1341 -19.62754,28.7035 12.94072,0.043 19.03318,-29.3999 z"
       id="path4198"
       inkscape:connector-curvature="0"
       sodipodi:nodetypes="ccccc" />
    <path
       style="fill:#ffffff;fill-rule:evenodd;stroke:none;stroke-width:1px;stroke-linecap:butt;stroke-linejoin:miter;stroke-opacity:1"
       d="m 420.24757,1194.9453 -17.04786,30.6468 12.49429,-0.046 16.3489,-30.7361 z"
       id="path4198-0"
       inkscape:connector-curvature="0"
       sodipodi:nodetypes="ccccc" />
    <path
       style="fill:#ffffff;fill-rule:evenodd;stroke:none;stroke-width:1px;stroke-linecap:butt;stroke-linejoin:miter;stroke-opacity:1"
       d="m 250.53055,1195.5058 19.62754,28.7035 -12.94072,0.043 -19.03318,-29.3999 z"
       id="path4198-2"
       inkscape:connector-curvature="0"
       sodipodi:nodetypes="ccccc" />
    <path
       style="fill:#ffffff;fill-rule:evenodd;stroke:none;stroke-width:1px;stroke-linecap:butt;stroke-linejoin:miter;stroke-opacity:1"
       d="m 229.97141,1194.317 17.04786,30.6468 -12.49429,-0.046 -16.34891,-30.7361 z"
       id="path4198-0-9"
       inkscape:connector-curvature="0"
       sodipodi:nodetypes="ccccc" />
    <path
       inkscape:connector-curvature="0"
       id="path1258"
       d="m 384.82009,782.4352 0,-0.0619 m -0.0311,0.0639 3.7e-4,-0.0655 m -0.023,0.0663 0,-0.0668"
       style="fill:none;stroke:#000000;stroke-width:0.00053333" />
    <path
       style="fill:none;fill-rule:evenodd;stroke:#000000;stroke-width:4.22584534;stroke-linecap:butt;stroke-linejoin:miter;stroke-miterlimit:4;stroke-dasharray:none;stroke-opacity:1"
       d="m 239.152,861.12251 16.29551,-53.89704"
       id="path6498"
       inkscape:connector-curvature="0"
       sodipodi:nodetypes="cc" />
    <g
       transform="matrix(0.01271115,0,0,0.01241643,347.1252,785.71818)"
       id="g4151">
      <rect
         style="fill:#c60c30"
         x="177.58"
         y="180.39999"
         width="2983.8999"
         height="1983.7"
         id="rect4" />
      <rect
         style="fill:#ffffff"
         x="1145.3"
         y="180.39999"
         width="322.57999"
         height="1983.7"
         id="rect6" />
      <rect
         style="fill:#ffffff"
         x="177.58"
         y="1011.7"
         width="2983.8999"
         height="321.17001"
         id="rect8" />
    </g>
    <path
       style="fill:#552200;fill-rule:evenodd;stroke:#000000;stroke-width:4;stroke-linecap:butt;stroke-linejoin:miter;stroke-miterlimit:4;stroke-dasharray:none;stroke-opacity:1"
       d="m 236.10166,571.23138 c 29.53973,-1.69336 39.88804,-16.36916 58.1387,-22.01368 24.08335,-7.14975 45.90888,-3.57488 62.08989,2.25781 34.05536,20.32032 33.93903,31.46949 41.2051,52.49417 5.22391,15.11562 0,47.97855 0,47.97855 l -6.77344,0 -0.56446,-37.81838 -27.09376,-14.6758 6.77344,16.93361 c -14.11133,-3.8571 -23.1426,-6.30307 -37.25394,-15.8047 l 0,16.93361 c -12.98242,-5.83269 -18.62695,-6.86752 -32.17384,-17.49806 l 0,18.06251 c -15.46871,-2.62405 -25.21565,-5.84372 -41.2051,-19.75587 -3.66895,13.64096 -7.62013,28.1286 -6.77345,53.62308 l -6.77344,0.56445 c -0.94076,-14.29948 -5.83268,-43.83922 7.3379,-68.29887 -9.31348,-1.78743 -11.5713,-6.96159 -16.9336,-12.98243 z"
       id="path4270"
       inkscape:connector-curvature="0"
       sodipodi:nodetypes="cccacccccccccccccc" />
    <use
       height="100%"
       width="100%"
       y="0"
       x="0"
       id="Commonwealth_Star-5"
       style="fill:#ffffff"
       xlink:href="#Star7"
       transform="matrix(0.66665592,0,0,0.66665592,514.00883,965.82092)" />
    <use
       height="100%"
       width="100%"
       y="0"
       x="0"
       id="Star_Alpha_Crucis-0"
       style="fill:#ffffff"
       xlink:href="#Star7"
       transform="matrix(0.3174552,0,0,0.3174552,554.00818,969.1542)" />
    <use
       height="100%"
       width="100%"
       y="0"
       x="0"
       id="Star_Beta_Crucis-9"
       style="fill:#ffffff"
       xlink:href="#Star7"
       transform="matrix(0.3174552,0,0,0.3174552,544.00834,953.32112)" />
    <use
       height="100%"
       width="100%"
       y="0"
       x="0"
       id="Star_Gamma_Crucis-5"
       style="fill:#ffffff"
       xlink:href="#Star7"
       transform="matrix(0.3174552,0,0,0.3174552,554.00818,942.48796)" />
    <use
       height="100%"
       width="100%"
       y="0"
       x="0"
       id="Star_Delta_Crucis-6"
       style="fill:#ffffff"
       xlink:href="#Star7"
       transform="matrix(0.3174552,0,0,0.3174552,562.89693,950.65449)" />
    <use
       height="100%"
       width="100%"
       y="0"
       x="0"
       id="Star_Epsilon_Crucis-3"
       style="fill:#ffffff"
       xlink:href="#Star5"
       transform="matrix(0.1851822,0,0,0.1851822,558.00812,957.48772)" />
    <g
       id="g941"
       transform="matrix(1.2902293,0,0,1.2902293,-141.75125,-322.40119)">
      <rect
         width="29.444353"
         height="19.62957"
         fill="#009246"
         id="rect2"
         x="380.37518"
         y="860.05109"
         style="stroke-width:9.81479" />
      <rect
         width="19.62957"
         height="19.62957"
         x="390.18997"
         fill="#ffffff"
         id="rect4-3"
         y="860.05109"
         style="stroke-width:9.81479" />
      <rect
         width="9.814785"
         height="19.62957"
         x="400.00476"
         fill="#ce2b37"
         id="rect6-6"
         y="860.05109"
         style="stroke-width:9.81479" />
    </g>
    <rect
       style="opacity:1;fill:none;fill-opacity:1;stroke:#000000;stroke-width:2.57235;stroke-miterlimit:4;stroke-dasharray:none;stroke-opacity:1"
       id="rect7500"
       width="39.498997"
       height="26.581171"
       x="347.81226"
       y="786.00739" />
  </g>
</svg>
