<?xml version="1.0" encoding="UTF-8" standalone="no"?>
<svg
   width="30"
   height="30"
   version="1.1"
   id="svg4"
   sodipodi:docname="icon_warning.svg"
   inkscape:version="1.2.2 (b0a8486541, 2022-12-01)"
   xmlns:inkscape="http://www.inkscape.org/namespaces/inkscape"
   xmlns:sodipodi="http://sodipodi.sourceforge.net/DTD/sodipodi-0.dtd"
   xmlns="http://www.w3.org/2000/svg"
   xmlns:svg="http://www.w3.org/2000/svg">
  <defs
     id="defs8" />
  <sodipodi:namedview
     id="namedview6"
     pagecolor="#ffffff"
     bordercolor="#999999"
     borderopacity="1"
     inkscape:pageshadow="0"
     inkscape:pageopacity="0"
     inkscape:pagecheckerboard="0"
     showgrid="false"
     width="36px"
     inkscape:zoom="9.663025"
     inkscape:cx="-1.8110271"
     inkscape:cy="22.456736"
     inkscape:window-width="1866"
     inkscape:window-height="1011"
     inkscape:window-x="54"
     inkscape:window-y="0"
     inkscape:window-maximized="1"
     inkscape:current-layer="svg4"
     inkscape:showpageshadow="0"
     inkscape:deskcolor="#d1d1d1" />
  <path
     style="fill:#ff9800;stroke-width:1.9708"
     class="warning"
     d="m 15.000533,1 c -0.66545,0 -1.263775,0.3562857 -1.618719,1.0276357 L 0.25659632,26.884572 C -0.47003656,28.2745 0.43149972,30 1.8752779,30 H 28.125788 c 1.425028,0 2.340046,-1.750357 1.625658,-3.115428 L 16.619252,2.0276357 C 16.264308,1.3562857 15.665983,1 15.000533,1 Z M 13.125496,7.2142858 H 16.87557 V 19.642857 h -3.750074 z m 0,14.4999992 h 3.750074 v 4.142858 h -3.750074 z"
     id="path2" />
</svg>
