[gd_resource type="StyleBoxFlat" format=3 uid="uid://ch26ypacxym57"]

[resource]
bg_color = Color(0.501961, 0.501961, 0.12549, 1)
border_width_left = 1
border_width_top = 1
border_width_right = 1
border_width_bottom = 1
border_color = Color(0, 0, 0, 1)
corner_radius_top_left = 4
corner_radius_top_right = 4
corner_radius_bottom_right = 4
corner_radius_bottom_left = 4
